<svg xmlns="http://www.w3.org/2000/svg" xmlns:xlink="http://www.w3.org/1999/xlink" version="1.1" id="Layer_1" x="0px" y="0px" width="200px" height="140px" viewBox="0 0 200 140" enable-background="new 0 0 200 140" xml:space="preserve">
<g>
	<g>
		<polygon fill-rule="evenodd" clip-rule="evenodd" fill="#ABABAB" points="47.562,11.722 73.355,11.722 71.601,16.103     52.799,16.103 52.799,28.259 67.276,28.259 65.521,32.708 52.727,32.708 52.727,47.898 47.562,47.898 47.562,11.722   "/>
		<path fill-rule="evenodd" clip-rule="evenodd" fill="#ABABAB" d="M96.32,37.547h4.953c0,0-0.011,2.152,0.003,3.209    c0.025,2.026,0.858,2.904,2.907,2.932h8.557c2.039-0.031,2.875-0.932,2.881-2.944V36.08c-0.004-1.762-0.413-2.48-2.097-2.924    l-11.817-3.109c-3.591-0.948-5.071-2.816-5.14-6.525v-4.98c0.058-4.084,2.451-6.647,6.557-6.785h10.792    c3.894,0.125,6.285,2.643,6.398,6.515l0.006,4.134h-5.021l-0.002-3.471c-0.02-2.051-0.846-2.907-2.888-2.925l-7.875,0    c-2.08,0.021-2.918,0.9-2.924,2.991l0.003,4.009c0.015,1.596,0.434,2.142,1.965,2.548l11.714,3.122    c1.014,0.281,2.018,0.708,2.923,1.244c1.415,0.838,2.319,2.194,2.388,3.811v8.715c-0.308,3.281-2.423,5.205-6.111,5.416h-12.717    c-3.288-0.216-5.22-2.607-5.438-5.9C96.241,40.521,96.32,37.547,96.32,37.547z"/>
		<polygon fill-rule="evenodd" clip-rule="evenodd" fill="#ABABAB" points="132.818,16.17 123.39,16.17 123.39,11.779     147.223,11.779 147.223,16.159 137.94,16.159 137.94,47.841 132.818,47.841 132.818,16.17   "/>
		<path fill-rule="evenodd" clip-rule="evenodd" fill="#ABABAB" d="M93.218,39.71c-0.03-1.048-0.25-2.134-0.6-3.122    c-1.188-3.352-9.233-24.827-9.233-24.827h-5.786c0,0-8.045,21.476-9.232,24.827c-0.35,0.988-0.572,2.074-0.6,3.122v8.147h4.968    v-8.436h15.516v8.436h4.967V39.71z M74.044,35.024l6.449-18.044l6.449,18.044H74.044z"/>
	</g>
	<g>
		<polygon fill-rule="evenodd" clip-rule="evenodd" fill="#ABABAB" points="0,52.686 25.793,52.686 24.038,57.066 5.236,57.066     5.236,69.222 19.712,69.222 17.958,73.672 5.164,73.672 5.164,88.861 0,88.861 0,52.686   "/>
		<path fill-rule="evenodd" clip-rule="evenodd" fill="#ABABAB" d="M175.27,88.848V52.699h16.09c0.997,0.006,2.125,0.082,3.09,0.313    c3.412,0.816,5.391,3.326,5.438,7.211v21.199c-0.072,4.543-2.925,7.347-7.432,7.426H175.27z M180.464,57.22v27.145h10.729    c2.58-0.009,3.562-0.916,3.573-3.479l0.001-20.222c-0.008-2.503-1.005-3.434-3.5-3.443H180.464z"/>
		<path fill-rule="evenodd" clip-rule="evenodd" fill="#ABABAB" d="M79.768,88.829c0.176,0,0.176,0-5.501,0l-4.54-13.569    c-0.181-0.575-0.506-0.803-1.157-0.792l-7.299-0.005c0,14.157,0,14.157,0,14.342h-5.113c0-12.012,0-36.087,0-36.087l15.724,0.003    c0.962,0,1.951,0.045,2.881,0.275c2.745,0.675,4.522,2.518,4.725,5.267l-0.025,10.661c-0.178,2.549-1.815,4.286-4.292,5.118    c-0.145,0.049-0.282,0.121-0.51,0.221C76.36,79.107,78.045,83.914,79.768,88.829z M61.281,70.025h10.353    c2.042-0.018,2.934-0.935,2.934-3.013c0-6.7,0.005,0,0.005-6.7c0-2.375-0.829-3.212-3.214-3.225H61.281V70.025z"/>
		<path fill-rule="evenodd" clip-rule="evenodd" fill="#ABABAB" d="M170.834,88.829c0.176,0,0.176,0-5.503,0l-4.539-13.569    c-0.181-0.575-0.506-0.803-1.155-0.792l-7.301-0.005c0,14.157,0,14.157,0,14.342h-5.113c0-12.012,0-36.087,0-36.087l15.726,0.003    c0.962,0,1.95,0.045,2.881,0.275c2.745,0.675,4.522,2.518,4.724,5.267l-0.023,10.661c-0.178,2.549-1.815,4.286-4.291,5.118    c-0.146,0.049-0.284,0.121-0.511,0.221C167.425,79.107,169.11,83.914,170.834,88.829z M152.346,70.025h10.353    c2.042-0.018,2.936-0.935,2.936-3.013c0-6.7,0.003,0,0.003-6.7c0-2.375-0.828-3.212-3.213-3.225h-10.078V70.025z"/>
		<path fill-rule="evenodd" clip-rule="evenodd" fill="#ABABAB" d="M143.274,80.674c-0.029-1.048-0.249-2.134-0.599-3.122    c-1.188-3.352-9.233-24.827-9.233-24.827h-5.785c0,0-8.046,21.476-9.233,24.827c-0.35,0.988-0.571,2.074-0.6,3.122v8.147h4.968    v-8.436h15.516v8.436h4.967V80.674z M124.102,75.987l6.448-18.043l6.449,18.043H124.102z"/>
		<path fill-rule="evenodd" clip-rule="evenodd" fill="#ABABAB" d="M52.206,60.751c-0.002-0.839-0.039-1.694-0.197-2.514    c-0.662-3.416-2.972-5.438-6.507-5.525H34.259c-3.535,0.087-5.845,2.109-6.507,5.525c-0.159,0.82-0.196,1.675-0.197,2.514    c-0.016,6.835-0.003,20.324-0.003,20.324c0,0.68,0.051,1.36,0.127,2.035c0.35,3.11,2.423,5.526,5.522,5.726H46.56    c3.099-0.199,5.172-2.615,5.521-5.726c0.076-0.675,0.127-1.355,0.128-2.035L52.206,60.751z M47.04,81.604    c-0.005,2.06-0.987,2.99-3.078,3H35.8c-2.091-0.01-3.073-0.94-3.078-3L32.72,60.019c0.003-1.919,0.945-2.854,2.876-2.873h8.568    c1.932,0.018,2.874,0.953,2.877,2.873L47.04,81.604z"/>
		<path fill-rule="evenodd" clip-rule="evenodd" fill="#ABABAB" d="M119.071,52.888c0.003-0.049-0.07-0.101-0.119-0.167h-4.861    c0,0,0.036,4.835-0.017,7.196c-0.021,1.058-0.106,2.141-0.357,3.164l-5.005,18.854l-4.957-19.077    c-0.591-2.738-0.431-10.113-0.431-10.113h-4.62c0,0,0.16,7.375-0.431,10.113l-4.957,19.077L88.312,63.08    c-0.252-1.023-0.336-2.106-0.359-3.164l-0.017-7.196h-4.86c-0.05,0.067-0.122,0.119-0.12,0.167    c0.154,3.897-0.556,7.836,0.66,11.682l6.945,24.257h5.106c0,0,5.385-18.249,5.404-18.248l5.289,18.248h5.106    c0.056-0.196,0.056-0.196,6.944-24.257C119.628,60.724,118.918,56.785,119.071,52.888z"/>
	</g>
	<g>
		<path fill-rule="evenodd" clip-rule="evenodd" fill="#ABABAB" d="M136.359,129.769V93.619h16.089    c0.998,0.006,2.127,0.083,3.091,0.312c3.413,0.815,5.392,3.327,5.439,7.212v21.199c-0.073,4.544-2.925,7.346-7.433,7.426H136.359z     M141.553,98.14v27.146h10.729c2.582-0.008,3.564-0.917,3.575-3.479l0.003-20.223c-0.009-2.502-1.006-3.434-3.5-3.443H141.553z"/>
		<rect x="164.928" y="93.664" fill-rule="evenodd" clip-rule="evenodd" fill="#ABABAB" width="5.123" height="36.062"/>
		<path fill-rule="evenodd" clip-rule="evenodd" fill="#ABABAB" d="M199.888,121.596c-0.029-1.049-0.249-2.135-0.599-3.123    c-1.188-3.352-9.233-24.827-9.233-24.827h-5.786c0,0-8.046,21.476-9.232,24.827c-0.35,0.988-0.571,2.074-0.6,3.123v8.147h4.968    v-8.437h15.517v8.437h4.966V121.596z M180.716,116.908l6.448-18.044l6.449,18.044H180.716z"/>
		<path fill-rule="evenodd" clip-rule="evenodd" fill="#ABABAB" d="M101.552,93.634c-0.725-0.035-1.078,0.231-1.404,0.862    l-9.3,17.744l-9.3-17.744c-0.326-0.631-0.68-0.897-1.404-0.862H76.19v36.124c4.71,0,0,0,4.71,0v-26.655l7.108,12.907    c0.608,1.009,1.152,1.851,2.031,2.152c0.304,0.107,1.328,0.09,1.616,0c0.878-0.302,1.422-1.144,2.031-2.152l7.108-12.907    c0.036,0.01,0.018,0.005,0,0v26.655h4.709V93.634H101.552z"/>
		<polygon fill-rule="evenodd" clip-rule="evenodd" fill="#ABABAB" points="131.972,98.14 131.972,93.619 109.893,93.619     109.893,108.261 109.893,112.652 109.893,129.769 131.972,129.769 131.972,125.285 115.087,125.285 115.087,112.648     130.217,112.64 131.972,108.261 115.087,108.261 115.087,98.14   "/>
	</g>
	<g>
		<g opacity="0.6">

				<linearGradient id="SVGID_1_" gradientUnits="userSpaceOnUse" x1="181.9199" y1="791.4531" x2="197.713" y2="807.2462" gradientTransform="matrix(1 0 0 -1 0 818.0391)">
				<stop offset="0" style="stop-color:#0DC7E7"/>
				<stop offset="1" style="stop-color:#2CEEAB"/>
			</linearGradient>
			<polygon fill="url(#SVGID_1_)" points="177.219,27.616 194.036,7.081 199.564,13.834 188.281,27.616    "/>
		</g>
		<g>

				<linearGradient id="SVGID_2_" gradientUnits="userSpaceOnUse" x1="182.4014" y1="816.5303" x2="197.5972" y2="801.3345" gradientTransform="matrix(1 0 0 -1 0 818.0391)">
				<stop offset="0" style="stop-color:#0DC7E7"/>
				<stop offset="1" style="stop-color:#2CEEAB"/>
			</linearGradient>
			<polygon fill="url(#SVGID_2_)" points="177.219,0 194.036,20.534 199.564,13.782 188.281,0    "/>
		</g>
		<g opacity="0.6">

				<linearGradient id="SVGID_3_" gradientUnits="userSpaceOnUse" x1="163.7549" y1="791.4541" x2="179.5479" y2="807.2471" gradientTransform="matrix(1 0 0 -1 0 818.0391)">
				<stop offset="0" style="stop-color:#0DC7E7"/>
				<stop offset="1" style="stop-color:#2CEEAB"/>
			</linearGradient>
			<polygon fill="url(#SVGID_3_)" points="159.054,27.616 175.871,7.081 181.399,13.834 170.114,27.616    "/>
		</g>
		<g>

				<linearGradient id="SVGID_4_" gradientUnits="userSpaceOnUse" x1="164.2363" y1="816.5293" x2="179.4321" y2="801.3335" gradientTransform="matrix(1 0 0 -1 0 818.0391)">
				<stop offset="0" style="stop-color:#0DC7E7"/>
				<stop offset="1" style="stop-color:#2CEEAB"/>
			</linearGradient>
			<polygon fill="url(#SVGID_4_)" points="159.054,0 175.871,20.534 181.399,13.782 170.114,0    "/>
		</g>
	</g>
</g>
</svg>
